{
    "swagger": "2.0",
    "info": {
        "version": "1.0",
        "description": "Loyalty API for Finablr Money- enables allocation, redemption, transfer and balance of shokens",
        "title": "Loyalty API for Finablr Money- enables allocation, redemption, transfer and balance inquiry of shokens.",
        "contact": {
            "email": "support@finablr.io"
        }
    },
    "host": "api.finablr.io",
    "basePath": "/loyalty/v1",
    "tags": [{
        "name": "loyaltyWallet",
        "description": "Everything about Finablr Loyalty Rewards",
        "externalDocs": {
            "description": "Find out more",
            "url": "http://www.finablr.io"
        }
    }],
    "schemes": [
        "https"
    ],
    "securityDefinitions": {
        "ApiKey": {
            "type": "apiKey",
            "in": "header",
            "name": "X-API-KEY"
        },
        "ApiId": {
            "type": "apiKey",
            "in": "header",
            "name": "X-API-ID"
        }
    },
    "security": [{
        "ApiKey": [],
        "ApiId": []
    }],
    "consumes": [
        "application/json"
    ],
    "produces": [
        "application/json"
    ],
    "paths": {
        "/allocation": {
            "post": {
                "description": "Client provides  details & this api allocates loyalty rewards in the form of shokens to sender and or beneficiary using those details.",
                "summary": "POST api to create a allocation",
                "operationId": "allocate_shoken.post",
                "deprecated": false,
                "produces": [
                    "application/json"
                ],
                "security": [{
                    "ApiKey": [],
                    "ApiId": []
                }],
                "parameters": [{
                    "name": "body",
                    "in": "body",
                    "required": true,
                    "description": "The client provided  details will be used to create allocation",
                    "schema": {
                        "$ref": "#/definitions/LoyaltyTxn"
                    }
                }],
                "responses": {
                    "204": {
                        "description": "Successful loyalty allocation(s) to Loyalty Wallet(s)",
                        "schema": {
                            "$ref": "#/definitions/LoyaltyWallets"
                        },
                        "headers": {
                            "X-Rate-Limit-Remaining": {
                                "description": "How many calls consumer can do",
                                "type": "integer"
                            },
                            "X-Rate-Limit-Reset": {
                                "description": "When rate limit will be reset",
                                "type": "string",
                                "format": "date-time"
                            }
                        }
                    },
                    "400": {
                        "description": "Loyalty Allocation couldn't be created.",
                        "headers": {
                            "X-Rate-Limit-Remaining": {
                                "description": "How many calls consumer can do",
                                "type": "integer"
                            },
                            "X-Rate-Limit-Reset": {
                                "description": "When rate limit will be reset",
                                "type": "string",
                                "format": "date-time"
                            }
                        }
                    },
                    "500": {
                        "$ref": "#/responses/Standard500ErrorResponse"
                    },
                    "default": {
                        "$ref": "#/responses/TotallyUnexpectedResponse"
                    }
                },
                "tags": [
                    "loyaltyWallet"
                ]
            }
        },
        "/redemption/shokens": {
            "post": {
                "description": "Client provides  details & this api redeems loyalty rewards in the form of shokens for the owner of the loyalty.",
                "summary": "POST api to redeem Loyalty shokens by shoken number",
                "operationId": "redeem_shoken.post",
                "deprecated": false,
                "produces": [
                    "application/json"
                ],
                "security": [{
                    "ApiKey": [],
                    "ApiId": []
                }],
                "parameters": [{
                    "name": "redmption_details",
                    "in": "body",
                    "description": "The client provided  details will be used for redemption- number of shokens",
                    "schema": {
                        "required": [
                            "loyalty_id",
                            "num_shokens"
                        ],
                        "properties": {
                            "loyalty_id": {
                                "type": "string"
                            },
                            "num_shokens": {
                                "type": "number"
                            }
                        }
                    }
                }],
                "responses": {
                    "204": {
                        "description": "Successful loyalty Redemption",
                        "schema": {
                            "$ref": "#/definitions/LoyaltyWallet"
                        },
                        "headers": {
                            "X-Rate-Limit-Remaining": {
                                "description": "How many calls consumer can do",
                                "type": "integer"
                            },
                            "X-Rate-Limit-Reset": {
                                "description": "When rate limit will be reset",
                                "type": "string",
                                "format": "date-time"
                            }
                        }
                    },
                    "400": {
                        "description": "Loyalty Redemption couldn't be created.",
                        "headers": {
                            "X-Rate-Limit-Remaining": {
                                "description": "How many calls consumer can do",
                                "type": "integer"
                            },
                            "X-Rate-Limit-Reset": {
                                "description": "When rate limit will be reset",
                                "type": "string",
                                "format": "date-time"
                            }
                        }
                    },
                    "500": {
                        "$ref": "#/responses/Standard500ErrorResponse"
                    },
                    "default": {
                        "$ref": "#/responses/TotallyUnexpectedResponse"
                    }
                },
                "tags": [
                    "loyaltyWallet"
                ]
            }
        },
        "/redemption/amount": {
            "post": {
                "description": "Client provides  details & this api redeems loyalty rewards in the form of shokens for the owner of the loyalty.",
                "summary": "POST api to redeem Loyalty shokens by $ amount",
                "operationId": "redeem_amount.post",
                "deprecated": false,
                "produces": [
                    "application/json"
                ],
                "security": [{
                    "ApiKey": [],
                    "ApiId": []
                }],
                "parameters": [{
                    "name": "redmption_details",
                    "in": "body",
                    "description": "The client provided  details will be used for redemption- amount to redeem",
                    "schema": {
                        "required": [
                            "loyalty_id",
                            "amount"
                        ],
                        "properties": {
                            "loyalty_id": {
                                "type": "string"
                            },
                            "amount": {
                                "type": "number"
                            }
                        }
                    }
                }],
                "responses": {
                    "204": {
                        "description": "Successful loyalty Redemption",
                        "schema": {
                            "$ref": "#/definitions/LoyaltyWallet"
                        },
                        "headers": {
                            "X-Rate-Limit-Remaining": {
                                "description": "How many calls consumer can do",
                                "type": "integer"
                            },
                            "X-Rate-Limit-Reset": {
                                "description": "When rate limit will be reset",
                                "type": "string",
                                "format": "date-time"
                            }
                        }
                    },
                    "400": {
                        "description": "Loyalty Redemption couldn't be created.",
                        "headers": {
                            "X-Rate-Limit-Remaining": {
                                "description": "How many calls consumer can do",
                                "type": "integer"
                            },
                            "X-Rate-Limit-Reset": {
                                "description": "When rate limit will be reset",
                                "type": "string",
                                "format": "date-time"
                            }
                        }
                    },
                    "500": {
                        "$ref": "#/responses/Standard500ErrorResponse"
                    },
                    "default": {
                        "$ref": "#/responses/TotallyUnexpectedResponse"
                    }
                },
                "tags": [
                    "loyaltyWallet"
                ]
            }
        },
        "/transfer": {
            "post": {
                "description": "Client provides  details & this api transfers loyalty rewards in the form of shokens from sender to a beneficiary using those details.",
                "summary": "POST api to create a transfer of shokens from owner to a beneficiary",
                "operationId": "transfer_shoken.post",
                "deprecated": false,
                "produces": [
                    "application/json"
                ],
                "security": [{
                    "ApiKey": [],
                    "ApiId": []
                }],
                "parameters": [{
                    "name": "body",
                    "in": "body",
                    "required": true,
                    "description": "The client provided  details will be used to create allocation",
                    "schema": {
                        "$ref": "#/definitions/LoyaltyTransferTxn"
                    }
                }],
                "responses": {
                    "204": {
                        "description": "Successful loyalty transfer between Wallet",
                        "schema": {
                            "$ref": "#/definitions/LoyaltyWallets"
                        },
                        "headers": {
                            "X-Rate-Limit-Remaining": {
                                "description": "How many calls consumer can do",
                                "type": "integer"
                            },
                            "X-Rate-Limit-Reset": {
                                "description": "When rate limit will be reset",
                                "type": "string",
                                "format": "date-time"
                            }
                        }
                    },
                    "400": {
                        "description": "Loyalty Allocation couldn't be created.",
                        "headers": {
                            "X-Rate-Limit-Remaining": {
                                "description": "How many calls consumer can do",
                                "type": "integer"
                            },
                            "X-Rate-Limit-Reset": {
                                "description": "When rate limit will be reset",
                                "type": "string",
                                "format": "date-time"
                            }
                        }
                    },
                    "500": {
                        "$ref": "#/responses/Standard500ErrorResponse"
                    },
                    "default": {
                        "$ref": "#/responses/TotallyUnexpectedResponse"
                    }
                },
                "tags": [
                    "loyaltyWallet"
                ]
            }
        },
        "/exchangerate": {
            "parameters": [{
                "$ref": "#/parameters/userAgent"
            }],
            "get": {
                "description": "Get Shoken rate against USD",
                "summary": "GET api to get Shoken B rate against USD",
                "operationId": "loyalty.exchangerate.get",
                "deprecated": false,
                "produces": [
                    "application/json"
                ],
                "parameters": [{
                    "name": "body",
                    "in": "body",
                    "required": true,
                    "description": "The client provided  details for exchange rate",
                    "schema": {
                        "$ref": "#/definitions/Exchangerate"
                    }
                }],
                "responses": {
                    "200": {
                        "description": "Successful to get rate",
                        "schema": {
                            "$ref": "#/definitions/Exchangerate"
                        },
                        "headers": {
                            "X-Rate-Limit-Remaining": {
                                "description": "How many calls consumer can do",
                                "type": "integer"
                            },
                            "X-Rate-Limit-Reset": {
                                "description": "When rate limit will be reset",
                                "type": "string",
                                "format": "date-time"
                            }
                        }
                    },
                    "404": {
                        "$ref": "#/responses/IDDoesNotExistResponse"
                    },
                    "500": {
                        "$ref": "#/responses/Standard500ErrorResponse"
                    },
                    "default": {
                        "$ref": "#/responses/TotallyUnexpectedResponse"
                    }
                }
            }
        },
        "/adjustment/shokens": {
            "post": {
                "description": "Client provides  details & this api adjusts loyalty rewards in the form of shokens for the owner of the loyalty.",
                "summary": "POST api to redeem Loyalty shokens by shoken number",
                "operationId": "adjust_shoken.post",
                "deprecated": false,
                "produces": [
                    "application/json"
                ],
                "security": [{
                    "ApiKey": [],
                    "ApiId": []
                }],
                "parameters": [{
                    "name": "adjustment_details",
                    "in": "body",
                    "description": "The client provided  details will be used for adjustment- number of shokens",
                    "schema": {
                        "required": [
                            "loyalty_id",
                            "num_shokens",
                            "operation"
                        ],
                        "properties": {
                            "loyalty_id": {
                                "type": "string"
                            },
                            "num_shokens": {
                                "type": "number"
                            },
                            "operation": {
                                "type": "string",
                                "x-enum": [{
                                        "value": "ADDITION",
                                        "description": "Add shokens from Owner's wallet"
                                    },
                                    {
                                        "value": "SUBTRACTION",
                                        "description": "Remove shokens from Owner's wallet"
                                    }
                                ]
                            }
                        }
                    }
                }],
                "responses": {
                    "204": {
                        "description": "Successful loyalty adjustment",
                        "schema": {
                            "$ref": "#/definitions/LoyaltyWallet"
                        },
                        "headers": {
                            "X-Rate-Limit-Remaining": {
                                "description": "How many calls consumer can do",
                                "type": "integer"
                            },
                            "X-Rate-Limit-Reset": {
                                "description": "When rate limit will be reset",
                                "type": "string",
                                "format": "date-time"
                            }
                        }
                    },
                    "400": {
                        "description": "Loyalty Adjustment couldn't be completed.",
                        "headers": {
                            "X-Rate-Limit-Remaining": {
                                "description": "How many calls consumer can do",
                                "type": "integer"
                            },
                            "X-Rate-Limit-Reset": {
                                "description": "When rate limit will be reset",
                                "type": "string",
                                "format": "date-time"
                            }
                        }
                    },
                    "500": {
                        "$ref": "#/responses/Standard500ErrorResponse"
                    },
                    "default": {
                        "$ref": "#/responses/TotallyUnexpectedResponse"
                    }
                },
                "tags": [
                    "loyaltyWallet"
                ]
            }
        },
        "/adjustment/amount": {
            "post": {
                "description": "Client provides  details & this api adjusts loyalty rewards in the form of shokens for the owner of the loyalty.",
                "summary": "POST api to redeem Loyalty shokens by $ amount",
                "operationId": "adjust_amount.post",
                "deprecated": false,
                "produces": [
                    "application/json"
                ],
                "security": [{
                    "ApiKey": [],
                    "ApiId": []
                }],
                "parameters": [{
                    "name": "adjustment_details",
                    "in": "body",
                    "description": "The client provided  details will be used for adjustment- amount to adjust",
                    "schema": {
                        "required": [
                            "loyalty_id",
                            "amount",
                            "operation"
                        ],
                        "properties": {
                            "loyalty_id": {
                                "type": "string"
                            },
                            "amount": {
                                "type": "number"
                            },
                            "operation": {
                                "type": "string",
                                "x-enum": [{
                                        "value": "ADDITION",
                                        "description": "Add equivalent $ shokens to Owner's wallet"
                                    },
                                    {
                                        "value": "SUBTRACTION",
                                        "description": "Remove equivalent $ shokens from Owner's wallet"
                                    }
                                ]
                            }
                        }
                    }
                }],
                "responses": {
                    "204": {
                        "description": "Successful loyalty Adjustment",
                        "schema": {
                            "$ref": "#/definitions/LoyaltyWallet"
                        },
                        "headers": {
                            "X-Rate-Limit-Remaining": {
                                "description": "How many calls consumer can do",
                                "type": "integer"
                            },
                            "X-Rate-Limit-Reset": {
                                "description": "When rate limit will be reset",
                                "type": "string",
                                "format": "date-time"
                            }
                        }
                    },
                    "400": {
                        "description": "Loyalty Adjustment couldn't be completed.",
                        "headers": {
                            "X-Rate-Limit-Remaining": {
                                "description": "How many calls consumer can do",
                                "type": "integer"
                            },
                            "X-Rate-Limit-Reset": {
                                "description": "When rate limit will be reset",
                                "type": "string",
                                "format": "date-time"
                            }
                        }
                    },
                    "500": {
                        "$ref": "#/responses/Standard500ErrorResponse"
                    },
                    "default": {
                        "$ref": "#/responses/TotallyUnexpectedResponse"
                    }
                },
                "tags": [
                    "loyaltyWallet"
                ]
            }
        },
        "/partner_transactions/{partner_id}": {
            "parameters": [{
                "$ref": "#/parameters/userAgent"
            }],
            "get": {
                "description": "Fetch transaction details for a partner id.",
                "summary": "GET api to get transactions for a partner_id",
                "operationId": "partners.transactions.get",
                "deprecated": false,
                "produces": [
                    "application/json"
                ],
                "security": [{
                    "ApiKey": [],
                    "ApiId": []
                }],
                "parameters": [{
                        "name": "partner_id",
                        "in": "path",
                        "description": "The mandatory partnerid field for which  objects will be fetched",
                        "required": true,
                        "type": "string"
                    },
                    {
                        "$ref": "#/parameters/pageSize"
                    },
                    {
                        "$ref": "#/parameters/pageNumber"
                    }
                ],
                "responses": {
                    "200": {
                        "description": "Successful to get Transactions",
                        "schema": {
                            "$ref": "#/definitions/PagedLoyaltyTxns"
                        },
                        "headers": {
                            "X-Rate-Limit-Remaining": {
                                "description": "How many calls consumer can do",
                                "type": "integer"
                            },
                            "X-Rate-Limit-Reset": {
                                "description": "When rate limit will be reset",
                                "type": "string",
                                "format": "date-time"
                            }
                        }
                    },
                    "404": {
                        "$ref": "#/responses/IDDoesNotExistResponse"
                    },
                    "500": {
                        "$ref": "#/responses/Standard500ErrorResponse"
                    },
                    "default": {
                        "$ref": "#/responses/TotallyUnexpectedResponse"
                    }
                }
            }
        },
        "/referrer_transactions/{referrer_id}": {
            "parameters": [{
                "$ref": "#/parameters/userAgent"
            }],
            "get": {
                "description": "Fetch transaction details for a referrer id.",
                "summary": "GET api to get transactions for a referrer",
                "operationId": "referrer.transactions.get",
                "deprecated": false,
                "produces": [
                    "application/json"
                ],
                "security": [{
                    "ApiKey": [],
                    "ApiId": []
                }],
                "parameters": [{
                        "name": "referrer_id",
                        "in": "path",
                        "description": "The mandatory referrer_id field for which  objects will be fetched",
                        "required": true,
                        "type": "string"
                    },
                    {
                        "$ref": "#/parameters/pageSize"
                    },
                    {
                        "$ref": "#/parameters/pageNumber"
                    }
                ],
                "responses": {
                    "200": {
                        "description": "Successful to get Transactions",
                        "schema": {
                            "$ref": "#/definitions/PagedLoyaltyTxns"
                        },
                        "headers": {
                            "X-Rate-Limit-Remaining": {
                                "description": "How many calls consumer can do",
                                "type": "integer"
                            },
                            "X-Rate-Limit-Reset": {
                                "description": "When rate limit will be reset",
                                "type": "string",
                                "format": "date-time"
                            }
                        }
                    },
                    "404": {
                        "$ref": "#/responses/IDDoesNotExistResponse"
                    },
                    "500": {
                        "$ref": "#/responses/Standard500ErrorResponse"
                    },
                    "default": {
                        "$ref": "#/responses/TotallyUnexpectedResponse"
                    }
                }
            }
        },
        "/wallet/{loyalty_id}": {
            "parameters": [{
                "$ref": "#/parameters/userAgent"
            }],
            "get": {
                "description": "Get loyalty wallet by id",
                "summary": "GET api to get wallet by wallet_id",
                "operationId": "loyalty.profile.get",
                "deprecated": false,
                "produces": [
                    "application/json"
                ],
                "parameters": [{
                    "name": "loyalty_id",
                    "in": "path",
                    "description": "The mandatory loyalty_id  for which wallet object will be fetched",
                    "required": true,
                    "type": "string"
                }],
                "responses": {
                    "200": {
                        "description": "Successful to get wallet",
                        "schema": {
                            "$ref": "#/definitions/LoyaltyWallet"
                        },
                        "headers": {
                            "X-Rate-Limit-Remaining": {
                                "description": "How many calls consumer can do",
                                "type": "integer"
                            },
                            "X-Rate-Limit-Reset": {
                                "description": "When rate limit will be reset",
                                "type": "string",
                                "format": "date-time"
                            }
                        }
                    },
                    "404": {
                        "$ref": "#/responses/IDDoesNotExistResponse"
                    },
                    "500": {
                        "$ref": "#/responses/Standard500ErrorResponse"
                    },
                    "default": {
                        "$ref": "#/responses/TotallyUnexpectedResponse"
                    }
                }
            }
        },
        "/wallet/{loyalty_id}/balance": {
            "parameters": [{
                "$ref": "#/parameters/userAgent"
            }],
            "get": {
                "description": "Get loyalty balance by wallet  id",
                "summary": "GET api to get balance for a wallet",
                "operationId": "loyalty.balance.get",
                "deprecated": false,
                "produces": [
                    "application/json"
                ],
                "parameters": [{
                    "name": "loyalty_id",
                    "in": "path",
                    "description": "The mandatory loyalty_id  for which  object will be fetched",
                    "required": true,
                    "type": "string"
                }],
                "responses": {
                    "200": {
                        "description": "Successful to get balance",
                        "schema": {
                            "$ref": "#/definitions/Shokens"
                        },
                        "headers": {
                            "X-Rate-Limit-Remaining": {
                                "description": "How many calls consumer can do",
                                "type": "integer"
                            },
                            "X-Rate-Limit-Reset": {
                                "description": "When rate limit will be reset",
                                "type": "string",
                                "format": "date-time"
                            }
                        }
                    },
                    "404": {
                        "$ref": "#/responses/IDDoesNotExistResponse"
                    },
                    "500": {
                        "$ref": "#/responses/Standard500ErrorResponse"
                    },
                    "default": {
                        "$ref": "#/responses/TotallyUnexpectedResponse"
                    }
                }
            }
        },
        "/wallet/{loyalty_id}/transactions": {
            "parameters": [{
                "$ref": "#/parameters/userAgent"
            }],
            "get": {
                "description": "Get loyalty transactions by wallet  id",
                "summary": "GET api to get transactions for a wallet",
                "operationId": "loyalty.transactions.get",
                "deprecated": false,
                "produces": [
                    "application/json"
                ],
                "parameters": [{
                    "name": "loyalty_id",
                    "in": "path",
                    "description": "The mandatory loyalty_id  for which  object will be fetched",
                    "required": true,
                    "type": "string"
                }],
                "responses": {
                    "200": {
                        "description": "Successful to get balance",
                        "schema": {
                            "$ref": "#/definitions/Wallet_transactions"
                        },
                        "headers": {
                            "X-Rate-Limit-Remaining": {
                                "description": "How many calls consumer can do",
                                "type": "integer"
                            },
                            "X-Rate-Limit-Reset": {
                                "description": "When rate limit will be reset",
                                "type": "string",
                                "format": "date-time"
                            }
                        }
                    },
                    "404": {
                        "$ref": "#/responses/IDDoesNotExistResponse"
                    },
                    "500": {
                        "$ref": "#/responses/Standard500ErrorResponse"
                    },
                    "default": {
                        "$ref": "#/responses/TotallyUnexpectedResponse"
                    }
                }
            }
        },
        "/wallet/{loyalty_id}/transactions/{type}": {
            "parameters": [{
                "$ref": "#/parameters/userAgent"
            }],
            "get": {
                "description": "Get loyalty transactions by wallet  id",
                "summary": "GET api to get transactinos for a wallet by transaction type",
                "operationId": "loyalty.transactions_type.get",
                "deprecated": false,
                "produces": [
                    "application/json"
                ],
                "parameters": [{
                        "name": "loyalty_id",
                        "in": "path",
                        "description": "The mandatory loyalty_id  for which  object will be fetched",
                        "required": true,
                        "type": "string"
                    },
                    {
                        "name": "type",
                        "in": "path",
                        "type": "string",
                        "required": true,
                        "x-enum": [{
                                "value": "ALLOCATION",
                                "description": "Allocation of Loyalty"
                            },
                            {
                                "value": "REDEMPTION",
                                "description": "Redemption of Loyalty"
                            },
                            {
                                "value": "TRANSFER",
                                "description": "Transfer of Loyalty"
                            },
                            {
                                "value": "ADJUSTMENT",
                                "description": "Adjustment of Loyalty"
                            }
                        ]
                    }
                ],
                "responses": {
                    "200": {
                        "description": "Successful to get balance",
                        "schema": {
                            "$ref": "#/definitions/Wallet_transactions"
                        },
                        "headers": {
                            "X-Rate-Limit-Remaining": {
                                "description": "How many calls consumer can do",
                                "type": "integer"
                            },
                            "X-Rate-Limit-Reset": {
                                "description": "When rate limit will be reset",
                                "type": "string",
                                "format": "date-time"
                            }
                        }
                    },
                    "404": {
                        "$ref": "#/responses/IDDoesNotExistResponse"
                    },
                    "500": {
                        "$ref": "#/responses/Standard500ErrorResponse"
                    },
                    "default": {
                        "$ref": "#/responses/TotallyUnexpectedResponse"
                    }
                }
            }
        }

    },
    "responses": {
        "IDDoesNotExistResponse": {
            "description": "ID does not exist.",
            "headers": {
                "X-Rate-Limit-Remaining": {
                    "description": "How many calls consumer can do",
                    "type": "integer"
                },
                "X-Rate-Limit-Reset": {
                    "description": "When rate limit will be reset",
                    "type": "string",
                    "format": "date-time"
                }
            },
            "schema": {
                "$ref": "#/definitions/Error"
            }
        },

        "Standard500ErrorResponse": {
            "description": "An unexpected error occured.",
            "headers": {
                "X-Rate-Limit-Remaining": {
                    "description": "How many calls consumer can do",
                    "type": "integer"
                },
                "X-Rate-Limit-Reset": {
                    "description": "When rate limit will be reset",
                    "type": "string",
                    "format": "date-time"
                }
            },
            "schema": {
                "$ref": "#/definitions/Error"
            }
        },
        "TotallyUnexpectedResponse": {
            "description": "A totally unexpected response",
            "headers": {
                "X-Rate-Limit-Remaining": {
                    "description": "How many calls consumer can do",
                    "type": "integer"
                },
                "X-Rate-Limit-Reset": {
                    "description": "When rate limit will be reset",
                    "type": "string",
                    "format": "date-time"
                }
            },
            "schema": {
                "$ref": "#/definitions/Error"
            }
        }
    },
    "definitions": {
        "ErrorMessage": {
            "title": "MultiDeviceErrorMessage",
            "description": "An error message with a long and a short description",
            "required": [
                "longMessage",
                "shortMessage"
            ],
            "properties": {
                "longMessage": {
                    "description": "A long error description",
                    "type": "string"
                },
                "shortMessage": {
                    "description": "A short error description",
                    "type": "string"
                }
            }
        },
        "MultilingualErrorMessage": {
            "title": "MultiLingualMultiDeviceErrorMessage",
            "description": "An multilingual error message (hashmap) with a long and a short description",
            "additionalProperties": {
                "$ref": "#/definitions/ErrorMessage"
            },
            "properties": {
                "defaultLanguage": {
                    "$ref": "#/definitions/ErrorMessage"
                }
            },
            "example": {
                "defaultLanguage": {
                    "longMessage": "We're deeply sorry but an error occured",
                    "shortMessage": "Error"
                },
                "fr": {
                    "longMessage": "Nous sommes désolé mais une erreur est survenu",
                    "shortMessage": "Erreur"
                }
            }
        },
        "Error": {
            "title": "MultiLingualMultiDeviceError",
            "description": "Give full information about the problem",
            "required": [
                "code",
                "message"
            ],
            "properties": {
                "code": {
                    "description": "A human readable code (death to numeric error codes!)",
                    "type": "string",
                    "enum": [
                        "DBERR",
                        "NTERR",
                        "UNERR"
                    ],
                    "example": "UNERR"
                },
                "message": {
                    "$ref": "#/definitions/MultilingualErrorMessage"
                },
                "logref": {
                    "description": "Reference to the correlation id for troubleshooting errors.",
                    "type": "string",
                    "format": "uuid",
                    "example": "24242342-dglskjiou4oujslkdjo4-gsdlg"
                }
            }
        },
        "Paging": {
            "required": [
                "totalItems",
                "totalPages",
                "pageSize",
                "currentPage"
            ],
            "properties": {
                "totalItems": {
                    "type": "integer"
                },
                "totalPages": {
                    "type": "integer"
                },
                "pageSize": {
                    "type": "integer"
                },
                "currentPage": {
                    "type": "integer"
                }
            }
        },
        "Phone": {
            "required": [
                "countrydialcode",
                "number"
            ],
            "type": "object",
            "properties": {
                "countrydialcode": {
                    "$ref": "#/definitions/Countrydialcode"
                },
                "number": {
                    "maxLength": 15,
                    "minLength": 10,
                    "type": "string",
                    "example": "+11234567890"
                }
            }
        },
        "Countrycode": {
            "maxLength": 2,
            "minLength": 2,
            "type": "string",
            "example": "US",
            "x-enum": [{
                "value": "US",
                "description": "USA"
            }]
        },
        "Currencycode": {
            "maxLength": 5,
            "minLength": 3,
            "type": "string",
            "example": "USD, SHKB",
            "x-enum": [{
                    "value": "USD",
                    "symbol": "$",
                    "name": "US Dollar",
                    "symbol_native": "$",
                    "decimal_digits": 2,
                    "rounding": 0,
                    "code": "USD",
                    "name_plural": "US dollars"
                },
                {
                    "value": "Shoken B",
                    "symbol": "SHKB",
                    "name": "Shoken B",
                    "symbol_native": "SHKB",
                    "decimal_digits": 4,
                    "rounding": 0,
                    "code": "SHKB",
                    "name_plural": "Shokens"
                }
            ]
        },
        "Name": {
            "title": "Person Name",
            "required": [
                "first",
                "last"
            ],
            "type": "object",
            "properties": {
                "title": {
                    "maxLength": 5,
                    "minLength": 1,
                    "type": "string",
                    "example": "Mr",
                    "description": "Title for e.g.Mr, Mrs, Ms, Jr, Sr"
                },
                "first": {
                    "maxLength": 50,
                    "minLength": 3,
                    "type": "string",
                    "example": "Alex",
                    "description": "First name or given name"
                },
                "last": {
                    "maxLength": 50,
                    "minLength": 3,
                    "type": "string",
                    "example": "Wood",
                    "description": "Last name of surname"
                }
            }
        },
        "User": {
            "required": [
                "contact",
                "name"
            ],
            "type": "object",
            "properties": {
                "name": {
                    "$ref": "#/definitions/Name"
                },
                "contact": {
                    "$ref": "#/definitions/Contact"
                }
            }
        },
        "Countrydialcode": {
            "maxLength": 5,
            "minLength": 2,
            "type": "string",
            "example": "+1",
            "x-enum": [{
                "value": "+1",
                "description": "USA"
            }]
        },
        "Contact": {
            "required": [
                "phone"
            ],
            "type": "object",
            "properties": {
                "email": {
                    "maxLength": 200,
                    "minLength": 1,
                    "type": "string",
                    "format": "email",
                    "example": "johndoe@abc.com",
                    "description": "email address"
                },
                "phone": {
                    "$ref": "#/definitions/Phone"
                }
            }
        },
        "Date": {
            "required": [
                "date"
            ],
            "type": "object",
            "properties": {
                "date": {
                    "type": "string",
                    "format": "date-time",
                    "example": "2018-11-13T20:20:39+00:00",
                    "description": "ISO8601 format."
                }
            }
        },

        "Exchangerate": {
            "required": [
                "base",
                "foreign",
                "date",
                "rate"
            ],
            "type": "object",
            "properties": {
                "base": {
                    "$ref": "#/definitions/Currencycode"
                },
                "foreign": {
                    "$ref": "#/definitions/Currencycode"
                },
                "date": {
                    "$ref": "#/definitions/Date"
                },
                "rate": {
                    "type": "number",
                    "minimum": 0
                }
            }
        },
        "Transaction": {
            "required": [
                "sendamount",
                "sendcurrency",
                "receiveamount",
                "receivecurrrency",
                "date-time-stamp-of-creation"
            ],
            "type": "object",
            "properties": {
                "sendcurrency": {
                    "$ref": "#/definitions/Currencycode"
                },
                "receivecurrrency": {
                    "$ref": "#/definitions/Currencycode"
                },
                "sendamount": {
                    "type": "number",
                    "minimum": 0
                },
                "receiveamount": {
                    "type": "number",
                    "minimum": 0
                },
                "transaction_type": {
                    "type": "string",
                    "description": "Type of Transaction which will conform to agreed upon types between the partner and loyalty platform"
                },
                "date-time-stamp-of-creation": {
                    "$ref": "#/definitions/Date"
                }
            }
        },
        "LoyaltyTxns": {
            "title": "Loyalty Transactions",
            "description": "A list of Loyalty Transactions",
            "required": [
                "items"
            ],
            "properties": {
                "items": {
                    "description": "Array containing loyalty Transactions",
                    "type": "array",
                    "minItems": 10,
                    "maxItems": 100,
                    "uniqueItems": true,
                    "items": {
                        "$ref": "#/definitions/Transaction"
                    }
                }
            }
        },
        "LoyaltyTxn": {
            "description": "Loyalty Transaction object that is passed by the client initiating shoken allocation. Depending on the partnerid, some fields may be mandatory even though they are marked as optional",
            "required": [
                "partner_id",
                "sender",
                "transaction"
            ],
            "type": "object",
            "properties": {
                "partner_id": {
                    "type": "string",
                    "example": "1234556788",
                    "description": "partner_id to which user belongs"
                },
                "referrer": {
                    "type": "string",
                    "example": "1234556788",
                    "description": "The referrer for the user, defaults to Finablr if not provided"
                },
                "beneficiary": {
                    "$ref": "#/definitions/User"
                },
                "sender": {
                    "$ref": "#/definitions/User"
                },
                "transaction": {
                    "$ref": "#/definitions/Transaction"
                }
            }
        },
        "LoyaltyTransferTxn": {
            "description": "Loyalty Transaction object that is passed by the client initiating shoken transfer. ",
            "required": [
                "sender",
                "beneficiary",
                "num_shokens"
            ],
            "type": "object",
            "properties": {
                "beneficiary": {
                    "$ref": "#/definitions/User"
                },
                "sender": {
                    "$ref": "#/definitions/User"
                },
                "num_shokens": {

                    "type": "number"
                }
            }
        },
        "LoyaltyWallet": {
            "title": "Loyalty wallet object",
            "required": [
                "loyalty_wallet_id"
            ],
            "type": "object",
            "properties": {
                "loyalty_wallet_id": {
                    "type": "number",
                    "example": 1234456788,
                    "description": "Loyalty wallet id assigned by the system"
                },
                "contact": {
                    "$ref": "#/definitions/Contact"
                },
                "transactions": {
                    "$ref": "#/definitions/Wallet_transactions"
                },
                "balances": {
                    "$ref": "#/definitions/Shokens"
                },
                "partner_id": {
                    "type": "string",
                    "example": "1234556788",
                    "description": "partner_id to which user belongs"
                },
                "referrer": {
                    "type": "string",
                    "example": "1234556788",
                    "description": "The referrer for the user, defaults to Finablr if not provided"
                }
            }
        },
        "LoyaltyWallets": {
            "title": "Loyalty Wallets",
            "description": "A list of Loyalty Wallets",
            "required": [
                "items"
            ],
            "properties": {
                "items": {
                    "description": "Array containing loyalty wallets",
                    "type": "array",
                    "minItems": 10,
                    "maxItems": 100,
                    "uniqueItems": true,
                    "items": {
                        "$ref": "#/definitions/LoyaltyWallet"
                    }
                }
            }
        },
        "Wallet_transaction": {
            "title": "Loyalty transaction object",
            "type": "object",
            "properties": {
                "transaction_id": {
                    "type": "string",
                    "example": "GDOL7YN3AA7TWYQ4RSAUYYP5CG3Y7TVOHU6YAVQ4YUIB3YPIKWN",
                    "description": " Loyalty transaction id"
                },
                "transaction_type": {
                    "type": "string",
                    "example": "ALLOCATION, REDEMPTION, TRANSFER, ADJUSTMENT ",
                    "x-enum": [{
                            "value": "ALLOCATION",
                            "description": "Allocation of Loyalty"
                        },
                        {
                            "value": "REDEMPTION",
                            "description": "Redemption of Loyalty"
                        },
                        {
                            "value": "TRANSFER",
                            "description": "Transfer of Loyalty"
                        },
                        {
                            "value": "ADJUSTMENT",
                            "description": "Adjustment of Loyalty"
                        }
                    ]
                },
                "date-time-stamp-of-creation": {
                    "$ref": "#/definitions/Date"
                },
                "loyalty_amount": {
                    "$ref": "#/definitions/Shokens"
                }
            }
        },
        "Wallet_transactions": {
            "title": "Wallet Transactions",
            "description": "A list of Loyalty transactions",
            "required": [
                "items"
            ],
            "properties": {
                "items": {
                    "description": "Array containing loyalty transactions",
                    "type": "array",
                    "minItems": 10,
                    "maxItems": 100,
                    "uniqueItems": true,
                    "items": {
                        "$ref": "#/definitions/Wallet_transaction"
                    }
                }
            }
        },
        "Shokens": {
            "title": "Loyalty balance object",
            "type": "object",
            "properties": {
                "asset_code": {
                    "type": "string",
                    "example": "SHOKENB",
                    "description": " Loyalty asset traded on stellar "
                },
                "asset_amount": {
                    "type": "number",
                    "format": "float",
                    "example": 4.11225,
                    "description": "amount"
                }
            }
        },
        "PagedLoyaltyTxns": {
            "allOf": [{
                    "$ref": "#/definitions/LoyaltyTxns"
                },
                {
                    "$ref": "#/definitions/Paging"
                }
            ]
        }
    },
    "parameters": {
        "userAgent": {
            "name": "User-Agent",
            "description": "All API consumers MUST provide a user agent",
            "type": "string",
            "in": "header",
            "required": true
        },
        "pageSize": {
            "name": "pageSize",
            "in": "query",
            "description": "Number of items returned",
            "type": "integer",
            "format": "int32",
            "minimum": 0,
            "exclusiveMinimum": true,
            "maximum": 100,
            "exclusiveMaximum": false,
            "multipleOf": 10,
            "default": 20
        },
        "pageNumber": {
            "name": "pageNumber",
            "in": "query",
            "description": "Page number",
            "type": "integer",
            "default": 1
        },
        "partner_id": {
            "name": "partner_id",
            "in": "path",
            "description": "The mandatory partnerid field for which  objects will be fetched",
            "required": true,
            "type": "string"
        },
        "referrer_id": {
            "name": "referrer_id",
            "in": "path",
            "description": "The mandatory referrer_id field for which  objects will be fetched",
            "required": true,
            "type": "string"
        },
        "loyalty_id": {
            "name": "loyalty_id",
            "in": "path",
            "description": "The mandatory loyalty_id field for which  objects will be fetched",
            "required": true,
            "type": "string"
        }
    }
}